…
# reorganize layers
p$layers = list(p$layers[[2]], p$layers[[1]], p$layers[[3]] )
```

```python
print(df)
```

    # A tibble: 53,940 x 6
    
         obs  pred steps               pred_PI97.5_raw pred_mean_raw pred_PI2.5_raw
    
       <int> <dbl> <fctr>                        <dbl>         <dbl>          <dbl>
    
     1   337  -897 [ -897.30, -368.04)             645           492            338
    
     2   367  -879 [ -897.30, -368.04)             645           492            338
    
     3   367  -797 [ -897.30, -368.04)             645           492            338
    
     4   478  -789 [ -897.30, -368.04)             645           492            338
    
     5   386  -781 [ -897.30, -368.04)             645           492            338
    
     6   367  -767 [ -897.30, -368.04)             645           492            338
    
     7   425  -758 [ -897.30, -368.04)             645           492            338
    
     8   472  -758 [ -897.30, -368.04)             645           492            338
    
     9   367  -756 [ -897.30, -368.04)             645           492            338
    
    10   472  -748 [ -897.30, -368.04)             645           492            338
    
    # ... with 53,930 more rows
…
