…
## # A tibble: 6 x 4
##   methods c                  pred                   best_tune           
##   <chr>   <list>             <list>                 <list>              
## 1 lm      <S3: train.recipe> <tibble [506 x 5]>     <data.frame [1 x 1]>
## 2 rpart   <S3: train.recipe> <tibble [18,216 x 5]>  <data.frame [1 x 1]>
## 3 cubist  <S3: train.recipe> <tibble [48,070 x 6]>  <data.frame [1 x 2]>
## 4 parRF   <S3: train.recipe> <tibble [3,036 x 5]>   <data.frame [1 x 1]>
## 5 earth   <S3: train.recipe> <tibble [13,156 x 6]>  <data.frame [1 x 2]>
## 6 xgbTree <S3: train.recipe> <tibble [50,600 x 11]> <data.frame [1 x 7]>

filter(df_pred, methods == 'cubist') %>%
  .$pred 

## [[1]]
## # A tibble: 48,070 x 6
##        obs rowIndex    pred committees neighbors Resample
##      <dbl>    <int>   <dbl>      <int>     <int> <chr>   
##  1 -1.87          4 -1.32            3         5 Fold1   
##  2  0.740         8 -0.0712          3         5 Fold1   
##  3  1.55          9  0.616           3         5 Fold1   
##  4  0.855        11 -0.240           3         5 Fold1   
##  5 -0.351        15 -0.0309          3         5 Fold1   
##  6 -0.123        19  1.15            3         5 Fold1   
##  7  0.481        26  1.06            3         5 Fold1   
##  8  0.292        27  0.225           3         5 Fold1   
##  9  0.560        28  0.608           3         5 Fold1   
## 10 -0.0793       30 -0.0862          3         5 Fold1   
## # ... with 48,060 more rows
…
# params_as_str(df_pred$pred[[6]], df_pred$best_tune[[6]] )

Apply and unnest

df_pred = df_pred %>%
  mutate( pred = map2(pred, best_tune, params_as_str )
          , pred = map(pred, select, Resample, desc_params, desc_values, rowIndex, obs, pred)
          ) %>%
  unnest(pred)

df_pred

## # A tibble: 133,584 x 7
##    methods Resample desc_params desc_values rowIndex     obs    pred
##    <chr>   <chr>    <chr>       <chr>          <int>   <dbl>   <dbl>
##  1 lm      Fold1    intercept   TRUE               4 -1.87   -0.815 
##  2 lm      Fold1    intercept   TRUE               8  0.740  -0.627 
##  3 lm      Fold1    intercept   TRUE               9  1.55   -0.177 
##  4 lm      Fold1    intercept   TRUE              11  0.855  -0.726 
##  5 lm      Fold1    intercept   TRUE              15 -0.351   0.0395
##  6 lm      Fold1    intercept   TRUE              19 -0.123   0.644 
##  7 lm      Fold1    intercept   TRUE              26  0.481   0.534 
##  8 lm      Fold1    intercept   TRUE              27  0.292   0.250 
##  9 lm      Fold1    intercept   TRUE              28  0.560   0.218 
## 10 lm      Fold1    intercept   TRUE              30 -0.0793 -0.331 
## # ... with 133,574 more rows
…
