…
Function with the most arguments

primitive base functions written in C are either of type “builtin” or “special”. formals(), body()and environment() will return NULL for those functions.

df_funs <- tibble(funs = funs,
       names = names(funs) ) %>%
  mutate(formals = map(funs, formals),
         n_args = map_int(formals, length),
         type = map_chr(funs, typeof)) %>%
  arrange(desc(n_args))

df_funs

## # A tibble: 1,323 × 5
##    funs         names            formals      n_args type   
##    <named list> <chr>            <named list>  <int> <chr>  
##  1 <fn>         scan             <pairlist>       22 closure
##  2 <fn>         format.default   <pairlist>       16 closure
##  3 <fn>         source           <pairlist>       16 closure
##  4 <fn>         formatC          <pairlist>       15 closure
##  5 <fn>         library          <pairlist>       13 closure
##  6 <fn>         merge.data.frame <pairlist>       13 closure
##  7 <fn>         prettyNum        <pairlist>       13 closure
##  8 <fn>         system2          <pairlist>       11 closure
##  9 <fn>         print.default    <pairlist>       10 closure
## 10 <fn>         save             <pairlist>       10 closure
## # … with 1,313 more rows
…
