…
Determine sample size:
- ARL is the average run length (number of consecutive samples) needed to get a point that is outside the upper and lower control limits. For a normal distribution the ARL is 370. So every 370 measurements we will get a false positive signal.
- The power of a control chart depends on the sample size. The operator characteristics (OC) plots the probabilty of a false negative (type two error) against the process shift in standard deviations for several sample sizes (n). For a given shift in process deviation we can also determine the probability beta for a false negative using the OC curve.
- ARL = 1 / (1 - beta)

X-bar Chart

Monitors the mean

uses d2 Shewart’s constants

df

## # A tibble: 200 x 3
##    diameter sample trial
##       <dbl>  <int> <lgl>
##  1     74.0      1 TRUE 
##  2     74.0      1 TRUE 
##  3     74.0      1 TRUE 
##  4     74.0      1 TRUE 
##  5     74.0      1 TRUE 
##  6     74.0      2 TRUE 
##  7     74.0      2 TRUE 
##  8     74.0      2 TRUE 
##  9     74.0      2 TRUE 
## 10     74.0      2 TRUE 
## # … with 190 more rows
…
# remove uninspected items
df_flaws <- ss.data.thickness2 %>%
  as_tibble() %>%
  filter(! is.na(flaws))

df_flaws

## # A tibble: 23 x 5
##    day   shift thickness ushift flaws
##    <fct> <fct>     <dbl> <chr>  <int>
##  1 1     1         0.713 1.1        9
##  2 1     2         0.749 1.2        2
##  3 1     2         0.726 1.2        7
##  4 1     2         0.774 1.2        9
##  5 2     1         0.778 2.1        7
##  6 2     2         0.78  2.2        4
##  7 2     2         0.729 2.2        6
##  8 2     2         0.793 2.2        9
##  9 3     1         0.775 3.1        9
## 10 3     2         0.727 3.2        4
## # … with 13 more rows
…
